{
  "appName": "Open Social Network",
  "slugs": {
    "user": "/u",
    "post": "/post"
  },
  "socket": {
    "path": "/",
    "devPath": "http://localhost:5000"
  },
  "indexDb": {
    "dbName": "open-social-network",
    "version": 1,
    "stores": {
      "1": {
        "user": {
          "id": "user",
          "key": "id",
          "indexes": {}
        },
        "posts": {
          "id": "posts",
          "key": "id",
          "indexes": {
            "by-user": "userId",
            "by-date": "timestamp"
          }
        },
        "comments": {
          "id": "comments",
          "key": "id",
          "indexes": {
            "by-post": "postId",
            "by-date": "timestamp"
          }
        }
      }
    }
  }
}
